{
  "kind": "collectionType",
  "collectionName": "tags",
  "info": {
    "singularName": "tag",
    "pluralName": "tags",
    "displayName": "Tag",
    "description": ""
  },
  "options": {
    "draftAndPublish": false
  },
  "pluginOptions": {
    "i18n": {
      "localized": true
    }
  },
  "attributes": {
    "tag": {
      "type": "string",
      "required": true,
      "unique": true,
      "pluginOptions": {
        "i18n": {
          "localized": true
        }
      }
    },
    "books": {
      "type": "relation",
      "relation": "manyToMany",
      "target": "api::book.book",
      "mappedBy": "tags"
    },
    "articles": {
      "type": "relation",
      "relation": "manyToMany",
      "target": "api::article.article",
      "inversedBy": "tags"
    },
    "slug": {
      "pluginOptions": {
        "i18n": {
          "localized": true
        }
      },
      "type": "uid",
      "targetField": "tag",
      "required": false
    }
  }
}
