{
  "collectionName": "components_shared_captioned_photos",
  "info": {
    "displayName": "CaptionedPhoto",
    "icon": "camera-retro",
    "description": ""
  },
  "options": {},
  "attributes": {
    "photo": {
      "type": "media",
      "multiple": false,
      "required": true,
      "allowedTypes": [
        "images"
      ]
    },
    "short_desc": {
      "type": "text"
    }
  }
}
