{
  "collectionName": "components_shared_media_texts",
  "info": {
    "displayName": "RichText",
    "icon": "align-left",
    "description": ""
  },
  "options": {},
  "attributes": {
    "text": {
      "type": "richtext",
      "required": true
    }
  }
}
