{
  "collectionName": "components_shared_soundcloud_audio_tracks",
  "info": {
    "displayName": "SCAudioTrack",
    "icon": "play",
    "description": ""
  },
  "options": {},
  "attributes": {
    "mini": {
      "type": "boolean",
      "default": true
    },
    "theme": {
      "type": "enumeration",
      "enum": [
        "dark",
        "light"
      ],
      "default": "light"
    },
    "track_id": {
      "type": "biginteger"
    },
    "short_desc": {
      "type": "text"
    }
  }
}
