{
  "collectionName": "components_shared_timeline_texts",
  "info": {
    "displayName": "TimelineText",
    "icon": "align-justify"
  },
  "options": {},
  "attributes": {
    "time": {
      "type": "datetime",
      "required": true,
      "unique": false
    },
    "text": {
      "type": "richtext",
      "required": true
    }
  }
}
