{
  "collectionName": "components_shared_youtube_videos",
  "info": {
    "displayName": "YoutubeVideo",
    "icon": "video",
    "description": ""
  },
  "options": {},
  "attributes": {
    "video_url": {
      "type": "string",
      "unique": false,
      "required": true
    },
    "short_desc": {
      "type": "text"
    }
  }
}
