{
  "kind": "collectionType",
  "collectionName": "articles",
  "info": {
    "singularName": "article",
    "pluralName": "articles",
    "displayName": "Article",
    "description": ""
  },
  "options": {
    "draftAndPublish": true
  },
  "pluginOptions": {},
  "attributes": {
    "title": {
      "type": "string",
      "required": true,
      "unique": true,
      "maxLength": 150,
      "minLength": 1
    },
    "short_desc": {
      "type": "text",
      "required": true,
      "maxLength": 150,
      "minLength": 10
    },
    "banner": {
      "type": "media",
      "multiple": false,
      "required": true,
      "allowedTypes": [
        "images"
      ]
    },
    "category": {
      "type": "relation",
      "relation": "oneToOne",
      "target": "api::category.category"
    },
    "slug": {
      "type": "uid",
      "targetField": "title"
    },
    "tags": {
      "type": "relation",
      "relation": "manyToMany",
      "target": "api::tag.tag",
      "mappedBy": "articles"
    },
    "content": {
      "type": "dynamiczone",
      "components": [
        "shared.captioned-photo-group",
        "shared.captioned-photo",
        "shared.captioned-video",
        "shared.media-text",
        "shared.sc-audio-playlist",
        "shared.soundcloud-audio-track",
        "shared.link-preview",
        "shared.aside-image",
        "shared.youtube-video"
      ]
    },
    "seo": {
      "type": "component",
      "repeatable": false,
      "component": "shared.seo"
    },
    "publish_date": {
      "type": "date",
      "required": true
    }
  }
}
