{
  "kind": "collectionType",
  "collectionName": "up_users",
  "info": {
    "name": "user",
    "description": "",
    "singularName": "user",
    "pluralName": "users",
    "displayName": "User"
  },
  "options": {
    "draftAndPublish": false
  },
  "attributes": {
    "username": {
      "type": "string",
      "minLength": 3,
      "unique": true,
      "configurable": false,
      "required": true
    },
    "email": {
      "type": "email",
      "minLength": 6,
      "configurable": false,
      "required": true
    },
    "provider": {
      "type": "string",
      "configurable": false
    },
    "password": {
      "type": "password",
      "minLength": 6,
      "configurable": false,
      "private": true
    },
    "resetPasswordToken": {
      "type": "string",
      "configurable": false,
      "private": true
    },
    "confirmationToken": {
      "type": "string",
      "configurable": false,
      "private": true
    },
    "confirmed": {
      "type": "boolean",
      "default": false,
      "configurable": false
    },
    "blocked": {
      "type": "boolean",
      "default": false,
      "configurable": false
    },
    "role": {
      "type": "relation",
      "relation": "manyToOne",
      "target": "plugin::users-permissions.role",
      "inversedBy": "users",
      "configurable": false
    },
    "phone": {
      "type": "string",
      "unique": true
    },
    "address": {
      "type": "text"
    },
    "avatar": {
      "type": "media",
      "multiple": false,
      "required": false,
      "allowedTypes": [
        "images"
      ]
    },
    "banner": {
      "type": "media",
      "multiple": false,
      "required": false,
      "allowedTypes": [
        "images"
      ]
    },
    "reviews": {
      "type": "relation",
      "relation": "oneToMany",
      "target": "api::review.review",
      "mappedBy": "user"
    },
    "bio": {
      "type": "blocks"
    }
  }
}
