{
  "name": "Super Admin",
  "code": "strapi-super-admin",
  "description": "Super Admins can access and manage all features and settings.",
  "permissions": [
    {
      "action": "plugin::content-manager.explorer.create",
      "actionParameters": {},
      "subject": "api::app-config.app-config",
      "properties": {
        "fields": [
          "maintenance_mode"
        ],
        "locales": [
          "en",
          "bn"
        ]
      },
      "conditions": []
    },
    {
      "action": "plugin::content-manager.explorer.delete",
      "actionParameters": {},
      "subject": "api::app-config.app-config",
      "properties": {
        "locales": [
          "en",
          "bn"
        ]
      },
      "conditions": []
    },
    {
      "action": "plugin::content-manager.explorer.read",
      "actionParameters": {},
      "subject": "api::app-config.app-config",
      "properties": {
        "fields": [
          "maintenance_mode"
        ],
        "locales": [
          "en",
          "bn"
        ]
      },
      "conditions": []
    },
    {
      "action": "plugin::content-manager.explorer.update",
      "actionParameters": {},
      "subject": "api::app-config.app-config",
      "properties": {
        "fields": [
          "maintenance_mode"
        ],
        "locales": [
          "en",
          "bn"
        ]
      },
      "conditions": []
    },
    {
      "action": "plugin::content-manager.explorer.create",
      "actionParameters": {},
      "subject": "api::article.article",
      "properties": {
        "fields": [
          "title",
          "short_desc",
          "banner",
          "category",
          "slug",
          "tags",
          "content",
          "seo.metaTitle",
          "seo.metaDescription",
          "seo.metaImage",
          "seo.metaSocial.socialNetwork",
          "seo.metaSocial.title",
          "seo.metaSocial.description",
          "seo.metaSocial.image",
          "seo.keywords",
          "seo.metaRobots",
          "seo.structuredData",
          "seo.metaViewport",
          "seo.canonicalURL",
          "publish_date"
        ]
      },
      "conditions": []
    },
    {
      "action": "plugin::content-manager.explorer.delete",
      "actionParameters": {},
      "subject": "api::article.article",
      "properties": {},
      "conditions": []
    },
    {
      "action": "plugin::content-manager.explorer.publish",
      "actionParameters": {},
      "subject": "api::article.article",
      "properties": {},
      "conditions": []
    },
    {
      "action": "plugin::content-manager.explorer.read",
      "actionParameters": {},
      "subject": "api::article.article",
      "properties": {
        "fields": [
          "title",
          "short_desc",
          "banner",
          "category",
          "slug",
          "tags",
          "content",
          "seo.metaTitle",
          "seo.metaDescription",
          "seo.metaImage",
          "seo.metaSocial.socialNetwork",
          "seo.metaSocial.title",
          "seo.metaSocial.description",
          "seo.metaSocial.image",
          "seo.keywords",
          "seo.metaRobots",
          "seo.structuredData",
          "seo.metaViewport",
          "seo.canonicalURL",
          "publish_date"
        ]
      },
      "conditions": []
    },
    {
      "action": "plugin::content-manager.explorer.update",
      "actionParameters": {},
      "subject": "api::article.article",
      "properties": {
        "fields": [
          "title",
          "short_desc",
          "banner",
          "category",
          "slug",
          "tags",
          "content",
          "seo.metaTitle",
          "seo.metaDescription",
          "seo.metaImage",
          "seo.metaSocial.socialNetwork",
          "seo.metaSocial.title",
          "seo.metaSocial.description",
          "seo.metaSocial.image",
          "seo.keywords",
          "seo.metaRobots",
          "seo.structuredData",
          "seo.metaViewport",
          "seo.canonicalURL",
          "publish_date"
        ]
      },
      "conditions": []
    },
    {
      "action": "plugin::content-manager.explorer.create",
      "actionParameters": {},
      "subject": "api::author.author",
      "properties": {
        "fields": [
          "full_name",
          "email",
          "slug",
          "avatar",
          "author_user",
          "books",
          "bio",
          "reviews",
          "seo.metaTitle",
          "seo.metaDescription",
          "seo.metaImage",
          "seo.metaSocial.socialNetwork",
          "seo.metaSocial.title",
          "seo.metaSocial.description",
          "seo.metaSocial.image",
          "seo.keywords",
          "seo.metaRobots",
          "seo.structuredData",
          "seo.metaViewport",
          "seo.canonicalURL"
        ],
        "locales": [
          "en",
          "bn"
        ]
      },
      "conditions": []
    },
    {
      "action": "plugin::content-manager.explorer.delete",
      "actionParameters": {},
      "subject": "api::author.author",
      "properties": {
        "locales": [
          "en",
          "bn"
        ]
      },
      "conditions": []
    },
    {
      "action": "plugin::content-manager.explorer.publish",
      "actionParameters": {},
      "subject": "api::author.author",
      "properties": {
        "locales": [
          "en",
          "bn"
        ]
      },
      "conditions": []
    },
    {
      "action": "plugin::content-manager.explorer.read",
      "actionParameters": {},
      "subject": "api::author.author",
      "properties": {
        "fields": [
          "full_name",
          "email",
          "slug",
          "avatar",
          "author_user",
          "books",
          "bio",
          "reviews",
          "seo.metaTitle",
          "seo.metaDescription",
          "seo.metaImage",
          "seo.metaSocial.socialNetwork",
          "seo.metaSocial.title",
          "seo.metaSocial.description",
          "seo.metaSocial.image",
          "seo.keywords",
          "seo.metaRobots",
          "seo.structuredData",
          "seo.metaViewport",
          "seo.canonicalURL"
        ],
        "locales": [
          "en",
          "bn"
        ]
      },
      "conditions": []
    },
    {
      "action": "plugin::content-manager.explorer.update",
      "actionParameters": {},
      "subject": "api::author.author",
      "properties": {
        "fields": [
          "full_name",
          "email",
          "slug",
          "avatar",
          "author_user",
          "books",
          "bio",
          "reviews",
          "seo.metaTitle",
          "seo.metaDescription",
          "seo.metaImage",
          "seo.metaSocial.socialNetwork",
          "seo.metaSocial.title",
          "seo.metaSocial.description",
          "seo.metaSocial.image",
          "seo.keywords",
          "seo.metaRobots",
          "seo.structuredData",
          "seo.metaViewport",
          "seo.canonicalURL"
        ],
        "locales": [
          "en",
          "bn"
        ]
      },
      "conditions": []
    },
    {
      "action": "plugin::content-manager.explorer.create",
      "actionParameters": {},
      "subject": "api::book.book",
      "properties": {
        "fields": [
          "title",
          "description",
          "publish_date",
          "isbn",
          "cover_image",
          "author",
          "reviews",
          "category",
          "tags",
          "publisher",
          "issn",
          "seo.metaTitle",
          "seo.metaDescription",
          "seo.metaImage",
          "seo.metaSocial.socialNetwork",
          "seo.metaSocial.title",
          "seo.metaSocial.description",
          "seo.metaSocial.image",
          "seo.keywords",
          "seo.metaRobots",
          "seo.structuredData",
          "seo.metaViewport",
          "seo.canonicalURL",
          "pdf_file",
          "slug",
          "sequence",
          "sequence_number"
        ],
        "locales": [
          "en",
          "bn"
        ]
      },
      "conditions": []
    },
    {
      "action": "plugin::content-manager.explorer.delete",
      "actionParameters": {},
      "subject": "api::book.book",
      "properties": {
        "locales": [
          "en",
          "bn"
        ]
      },
      "conditions": []
    },
    {
      "action": "plugin::content-manager.explorer.publish",
      "actionParameters": {},
      "subject": "api::book.book",
      "properties": {
        "locales": [
          "en",
          "bn"
        ]
      },
      "conditions": []
    },
    {
      "action": "plugin::content-manager.explorer.read",
      "actionParameters": {},
      "subject": "api::book.book",
      "properties": {
        "fields": [
          "title",
          "description",
          "publish_date",
          "isbn",
          "cover_image",
          "author",
          "reviews",
          "category",
          "tags",
          "publisher",
          "issn",
          "seo.metaTitle",
          "seo.metaDescription",
          "seo.metaImage",
          "seo.metaSocial.socialNetwork",
          "seo.metaSocial.title",
          "seo.metaSocial.description",
          "seo.metaSocial.image",
          "seo.keywords",
          "seo.metaRobots",
          "seo.structuredData",
          "seo.metaViewport",
          "seo.canonicalURL",
          "pdf_file",
          "slug",
          "sequence",
          "sequence_number"
        ],
        "locales": [
          "en",
          "bn"
        ]
      },
      "conditions": []
    },
    {
      "action": "plugin::content-manager.explorer.update",
      "actionParameters": {},
      "subject": "api::book.book",
      "properties": {
        "fields": [
          "title",
          "description",
          "publish_date",
          "isbn",
          "cover_image",
          "author",
          "reviews",
          "category",
          "tags",
          "publisher",
          "issn",
          "seo.metaTitle",
          "seo.metaDescription",
          "seo.metaImage",
          "seo.metaSocial.socialNetwork",
          "seo.metaSocial.title",
          "seo.metaSocial.description",
          "seo.metaSocial.image",
          "seo.keywords",
          "seo.metaRobots",
          "seo.structuredData",
          "seo.metaViewport",
          "seo.canonicalURL",
          "pdf_file",
          "slug",
          "sequence",
          "sequence_number"
        ],
        "locales": [
          "en",
          "bn"
        ]
      },
      "conditions": []
    },
    {
      "action": "plugin::content-manager.explorer.create",
      "actionParameters": {},
      "subject": "api::category.category",
      "properties": {
        "fields": [
          "title",
          "slug",
          "banner",
          "description",
          "show_title_in_details",
          "books"
        ],
        "locales": [
          "en",
          "bn"
        ]
      },
      "conditions": []
    },
    {
      "action": "plugin::content-manager.explorer.delete",
      "actionParameters": {},
      "subject": "api::category.category",
      "properties": {
        "locales": [
          "en",
          "bn"
        ]
      },
      "conditions": []
    },
    {
      "action": "plugin::content-manager.explorer.publish",
      "actionParameters": {},
      "subject": "api::category.category",
      "properties": {
        "locales": [
          "en",
          "bn"
        ]
      },
      "conditions": []
    },
    {
      "action": "plugin::content-manager.explorer.read",
      "actionParameters": {},
      "subject": "api::category.category",
      "properties": {
        "fields": [
          "title",
          "slug",
          "banner",
          "description",
          "show_title_in_details",
          "books"
        ],
        "locales": [
          "en",
          "bn"
        ]
      },
      "conditions": []
    },
    {
      "action": "plugin::content-manager.explorer.update",
      "actionParameters": {},
      "subject": "api::category.category",
      "properties": {
        "fields": [
          "title",
          "slug",
          "banner",
          "description",
          "show_title_in_details",
          "books"
        ],
        "locales": [
          "en",
          "bn"
        ]
      },
      "conditions": []
    },
    {
      "action": "plugin::content-manager.explorer.create",
      "actionParameters": {},
      "subject": "api::publisher.publisher",
      "properties": {
        "fields": [
          "name",
          "address",
          "websile",
          "books",
          "description"
        ],
        "locales": [
          "en",
          "bn"
        ]
      },
      "conditions": []
    },
    {
      "action": "plugin::content-manager.explorer.delete",
      "actionParameters": {},
      "subject": "api::publisher.publisher",
      "properties": {
        "locales": [
          "en",
          "bn"
        ]
      },
      "conditions": []
    },
    {
      "action": "plugin::content-manager.explorer.publish",
      "actionParameters": {},
      "subject": "api::publisher.publisher",
      "properties": {
        "locales": [
          "en",
          "bn"
        ]
      },
      "conditions": []
    },
    {
      "action": "plugin::content-manager.explorer.read",
      "actionParameters": {},
      "subject": "api::publisher.publisher",
      "properties": {
        "fields": [
          "name",
          "address",
          "websile",
          "books",
          "description"
        ],
        "locales": [
          "en",
          "bn"
        ]
      },
      "conditions": []
    },
    {
      "action": "plugin::content-manager.explorer.update",
      "actionParameters": {},
      "subject": "api::publisher.publisher",
      "properties": {
        "fields": [
          "name",
          "address",
          "websile",
          "books",
          "description"
        ],
        "locales": [
          "en",
          "bn"
        ]
      },
      "conditions": []
    },
    {
      "action": "plugin::content-manager.explorer.create",
      "actionParameters": {},
      "subject": "api::review.review",
      "properties": {
        "fields": [
          "rating",
          "comment",
          "user",
          "book",
          "author"
        ]
      },
      "conditions": []
    },
    {
      "action": "plugin::content-manager.explorer.delete",
      "actionParameters": {},
      "subject": "api::review.review",
      "properties": {},
      "conditions": []
    },
    {
      "action": "plugin::content-manager.explorer.read",
      "actionParameters": {},
      "subject": "api::review.review",
      "properties": {
        "fields": [
          "rating",
          "comment",
          "user",
          "book",
          "author"
        ]
      },
      "conditions": []
    },
    {
      "action": "plugin::content-manager.explorer.update",
      "actionParameters": {},
      "subject": "api::review.review",
      "properties": {
        "fields": [
          "rating",
          "comment",
          "user",
          "book",
          "author"
        ]
      },
      "conditions": []
    },
    {
      "action": "plugin::content-manager.explorer.create",
      "actionParameters": {},
      "subject": "api::sequence.sequence",
      "properties": {
        "fields": [
          "Title",
          "description",
          "books",
          "seo.metaTitle",
          "seo.metaDescription",
          "seo.metaImage",
          "seo.metaSocial.socialNetwork",
          "seo.metaSocial.title",
          "seo.metaSocial.description",
          "seo.metaSocial.image",
          "seo.keywords",
          "seo.metaRobots",
          "seo.structuredData",
          "seo.metaViewport",
          "seo.canonicalURL",
          "slug"
        ],
        "locales": [
          "en",
          "bn"
        ]
      },
      "conditions": []
    },
    {
      "action": "plugin::content-manager.explorer.delete",
      "actionParameters": {},
      "subject": "api::sequence.sequence",
      "properties": {
        "locales": [
          "en",
          "bn"
        ]
      },
      "conditions": []
    },
    {
      "action": "plugin::content-manager.explorer.publish",
      "actionParameters": {},
      "subject": "api::sequence.sequence",
      "properties": {
        "locales": [
          "en",
          "bn"
        ]
      },
      "conditions": []
    },
    {
      "action": "plugin::content-manager.explorer.read",
      "actionParameters": {},
      "subject": "api::sequence.sequence",
      "properties": {
        "fields": [
          "Title",
          "description",
          "books",
          "seo.metaTitle",
          "seo.metaDescription",
          "seo.metaImage",
          "seo.metaSocial.socialNetwork",
          "seo.metaSocial.title",
          "seo.metaSocial.description",
          "seo.metaSocial.image",
          "seo.keywords",
          "seo.metaRobots",
          "seo.structuredData",
          "seo.metaViewport",
          "seo.canonicalURL",
          "slug"
        ],
        "locales": [
          "en",
          "bn"
        ]
      },
      "conditions": []
    },
    {
      "action": "plugin::content-manager.explorer.update",
      "actionParameters": {},
      "subject": "api::sequence.sequence",
      "properties": {
        "fields": [
          "Title",
          "description",
          "books",
          "seo.metaTitle",
          "seo.metaDescription",
          "seo.metaImage",
          "seo.metaSocial.socialNetwork",
          "seo.metaSocial.title",
          "seo.metaSocial.description",
          "seo.metaSocial.image",
          "seo.keywords",
          "seo.metaRobots",
          "seo.structuredData",
          "seo.metaViewport",
          "seo.canonicalURL",
          "slug"
        ],
        "locales": [
          "en",
          "bn"
        ]
      },
      "conditions": []
    },
    {
      "action": "plugin::content-manager.explorer.create",
      "actionParameters": {},
      "subject": "api::tag.tag",
      "properties": {
        "fields": [
          "tag",
          "books",
          "articles",
          "slug"
        ],
        "locales": [
          "en",
          "bn"
        ]
      },
      "conditions": []
    },
    {
      "action": "plugin::content-manager.explorer.delete",
      "actionParameters": {},
      "subject": "api::tag.tag",
      "properties": {
        "locales": [
          "en",
          "bn"
        ]
      },
      "conditions": []
    },
    {
      "action": "plugin::content-manager.explorer.read",
      "actionParameters": {},
      "subject": "api::tag.tag",
      "properties": {
        "fields": [
          "tag",
          "books",
          "articles",
          "slug"
        ],
        "locales": [
          "en",
          "bn"
        ]
      },
      "conditions": []
    },
    {
      "action": "plugin::content-manager.explorer.update",
      "actionParameters": {},
      "subject": "api::tag.tag",
      "properties": {
        "fields": [
          "tag",
          "books",
          "articles",
          "slug"
        ],
        "locales": [
          "en",
          "bn"
        ]
      },
      "conditions": []
    },
    {
      "action": "admin::api-tokens.access",
      "actionParameters": {},
      "subject": null,
      "properties": {},
      "conditions": []
    },
    {
      "action": "admin::api-tokens.create",
      "actionParameters": {},
      "subject": null,
      "properties": {},
      "conditions": []
    },
    {
      "action": "admin::api-tokens.delete",
      "actionParameters": {},
      "subject": null,
      "properties": {},
      "conditions": []
    },
    {
      "action": "admin::api-tokens.read",
      "actionParameters": {},
      "subject": null,
      "properties": {},
      "conditions": []
    },
    {
      "action": "admin::api-tokens.regenerate",
      "actionParameters": {},
      "subject": null,
      "properties": {},
      "conditions": []
    },
    {
      "action": "admin::api-tokens.update",
      "actionParameters": {},
      "subject": null,
      "properties": {},
      "conditions": []
    },
    {
      "action": "admin::marketplace.read",
      "actionParameters": {},
      "subject": null,
      "properties": {},
      "conditions": []
    },
    {
      "action": "admin::project-settings.read",
      "actionParameters": {},
      "subject": null,
      "properties": {},
      "conditions": []
    },
    {
      "action": "admin::project-settings.update",
      "actionParameters": {},
      "subject": null,
      "properties": {},
      "conditions": []
    },
    {
      "action": "admin::roles.create",
      "actionParameters": {},
      "subject": null,
      "properties": {},
      "conditions": []
    },
    {
      "action": "admin::roles.delete",
      "actionParameters": {},
      "subject": null,
      "properties": {},
      "conditions": []
    },
    {
      "action": "admin::roles.read",
      "actionParameters": {},
      "subject": null,
      "properties": {},
      "conditions": []
    },
    {
      "action": "admin::roles.update",
      "actionParameters": {},
      "subject": null,
      "properties": {},
      "conditions": []
    },
    {
      "action": "admin::transfer.tokens.access",
      "actionParameters": {},
      "subject": null,
      "properties": {},
      "conditions": []
    },
    {
      "action": "admin::transfer.tokens.create",
      "actionParameters": {},
      "subject": null,
      "properties": {},
      "conditions": []
    },
    {
      "action": "admin::transfer.tokens.delete",
      "actionParameters": {},
      "subject": null,
      "properties": {},
      "conditions": []
    },
    {
      "action": "admin::transfer.tokens.read",
      "actionParameters": {},
      "subject": null,
      "properties": {},
      "conditions": []
    },
    {
      "action": "admin::transfer.tokens.regenerate",
      "actionParameters": {},
      "subject": null,
      "properties": {},
      "conditions": []
    },
    {
      "action": "admin::transfer.tokens.update",
      "actionParameters": {},
      "subject": null,
      "properties": {},
      "conditions": []
    },
    {
      "action": "admin::users.create",
      "actionParameters": {},
      "subject": null,
      "properties": {},
      "conditions": []
    },
    {
      "action": "admin::users.delete",
      "actionParameters": {},
      "subject": null,
      "properties": {},
      "conditions": []
    },
    {
      "action": "admin::users.read",
      "actionParameters": {},
      "subject": null,
      "properties": {},
      "conditions": []
    },
    {
      "action": "admin::users.update",
      "actionParameters": {},
      "subject": null,
      "properties": {},
      "conditions": []
    },
    {
      "action": "admin::webhooks.create",
      "actionParameters": {},
      "subject": null,
      "properties": {},
      "conditions": []
    },
    {
      "action": "admin::webhooks.delete",
      "actionParameters": {},
      "subject": null,
      "properties": {},
      "conditions": []
    },
    {
      "action": "admin::webhooks.read",
      "actionParameters": {},
      "subject": null,
      "properties": {},
      "conditions": []
    },
    {
      "action": "admin::webhooks.update",
      "actionParameters": {},
      "subject": null,
      "properties": {},
      "conditions": []
    },
    {
      "action": "plugin::config-sync.menu-link",
      "actionParameters": {},
      "subject": null,
      "properties": {},
      "conditions": []
    },
    {
      "action": "plugin::config-sync.settings.read",
      "actionParameters": {},
      "subject": null,
      "properties": {},
      "conditions": []
    },
    {
      "action": "plugin::content-manager.collection-types.configure-view",
      "actionParameters": {},
      "subject": null,
      "properties": {},
      "conditions": []
    },
    {
      "action": "plugin::content-manager.components.configure-layout",
      "actionParameters": {},
      "subject": null,
      "properties": {},
      "conditions": []
    },
    {
      "action": "plugin::content-manager.explorer.create",
      "actionParameters": {},
      "subject": "plugin::users-permissions.user",
      "properties": {
        "fields": [
          "username",
          "email",
          "provider",
          "password",
          "resetPasswordToken",
          "confirmationToken",
          "confirmed",
          "blocked",
          "role",
          "phone",
          "address",
          "avatar",
          "banner",
          "reviews",
          "bio"
        ]
      },
      "conditions": []
    },
    {
      "action": "plugin::content-manager.explorer.delete",
      "actionParameters": {},
      "subject": "plugin::users-permissions.user",
      "properties": {},
      "conditions": []
    },
    {
      "action": "plugin::content-manager.explorer.read",
      "actionParameters": {},
      "subject": "plugin::users-permissions.user",
      "properties": {
        "fields": [
          "username",
          "email",
          "provider",
          "password",
          "resetPasswordToken",
          "confirmationToken",
          "confirmed",
          "blocked",
          "role",
          "phone",
          "address",
          "avatar",
          "banner",
          "reviews",
          "bio"
        ]
      },
      "conditions": []
    },
    {
      "action": "plugin::content-manager.explorer.update",
      "actionParameters": {},
      "subject": "plugin::users-permissions.user",
      "properties": {
        "fields": [
          "username",
          "email",
          "provider",
          "password",
          "resetPasswordToken",
          "confirmationToken",
          "confirmed",
          "blocked",
          "role",
          "phone",
          "address",
          "avatar",
          "banner",
          "reviews",
          "bio"
        ]
      },
      "conditions": []
    },
    {
      "action": "plugin::content-manager.single-types.configure-view",
      "actionParameters": {},
      "subject": null,
      "properties": {},
      "conditions": []
    },
    {
      "action": "plugin::content-type-builder.read",
      "actionParameters": {},
      "subject": null,
      "properties": {},
      "conditions": []
    },
    {
      "action": "plugin::documentation.read",
      "actionParameters": {},
      "subject": null,
      "properties": {},
      "conditions": []
    },
    {
      "action": "plugin::documentation.settings.read",
      "actionParameters": {},
      "subject": null,
      "properties": {},
      "conditions": []
    },
    {
      "action": "plugin::documentation.settings.regenerate",
      "actionParameters": {},
      "subject": null,
      "properties": {},
      "conditions": []
    },
    {
      "action": "plugin::documentation.settings.update",
      "actionParameters": {},
      "subject": null,
      "properties": {},
      "conditions": []
    },
    {
      "action": "plugin::email.settings.read",
      "actionParameters": {},
      "subject": null,
      "properties": {},
      "conditions": []
    },
    {
      "action": "plugin::i18n.locale.create",
      "actionParameters": {},
      "subject": null,
      "properties": {},
      "conditions": []
    },
    {
      "action": "plugin::i18n.locale.delete",
      "actionParameters": {},
      "subject": null,
      "properties": {},
      "conditions": []
    },
    {
      "action": "plugin::i18n.locale.read",
      "actionParameters": {},
      "subject": null,
      "properties": {},
      "conditions": []
    },
    {
      "action": "plugin::i18n.locale.update",
      "actionParameters": {},
      "subject": null,
      "properties": {},
      "conditions": []
    },
    {
      "action": "plugin::import-export-entries.export",
      "actionParameters": {},
      "subject": null,
      "properties": {},
      "conditions": []
    },
    {
      "action": "plugin::import-export-entries.import",
      "actionParameters": {},
      "subject": null,
      "properties": {},
      "conditions": []
    },
    {
      "action": "plugin::redis.settings.read",
      "actionParameters": {},
      "subject": null,
      "properties": {},
      "conditions": []
    },
    {
      "action": "plugin::rest-cache.cache.purge",
      "actionParameters": {},
      "subject": null,
      "properties": {},
      "conditions": []
    },
    {
      "action": "plugin::rest-cache.cache.read-provider",
      "actionParameters": {},
      "subject": null,
      "properties": {},
      "conditions": []
    },
    {
      "action": "plugin::rest-cache.cache.read-strategy",
      "actionParameters": {},
      "subject": null,
      "properties": {},
      "conditions": []
    },
    {
      "action": "plugin::seo.read",
      "actionParameters": {},
      "subject": null,
      "properties": {},
      "conditions": []
    },
    {
      "action": "plugin::upload.assets.copy-link",
      "actionParameters": {},
      "subject": null,
      "properties": {},
      "conditions": []
    },
    {
      "action": "plugin::upload.assets.create",
      "actionParameters": {},
      "subject": null,
      "properties": {},
      "conditions": []
    },
    {
      "action": "plugin::upload.assets.download",
      "actionParameters": {},
      "subject": null,
      "properties": {},
      "conditions": []
    },
    {
      "action": "plugin::upload.assets.update",
      "actionParameters": {},
      "subject": null,
      "properties": {},
      "conditions": []
    },
    {
      "action": "plugin::upload.configure-view",
      "actionParameters": {},
      "subject": null,
      "properties": {},
      "conditions": []
    },
    {
      "action": "plugin::upload.read",
      "actionParameters": {},
      "subject": null,
      "properties": {},
      "conditions": []
    },
    {
      "action": "plugin::upload.settings.read",
      "actionParameters": {},
      "subject": null,
      "properties": {},
      "conditions": []
    },
    {
      "action": "plugin::users-permissions.advanced-settings.read",
      "actionParameters": {},
      "subject": null,
      "properties": {},
      "conditions": []
    },
    {
      "action": "plugin::users-permissions.advanced-settings.update",
      "actionParameters": {},
      "subject": null,
      "properties": {},
      "conditions": []
    },
    {
      "action": "plugin::users-permissions.email-templates.read",
      "actionParameters": {},
      "subject": null,
      "properties": {},
      "conditions": []
    },
    {
      "action": "plugin::users-permissions.email-templates.update",
      "actionParameters": {},
      "subject": null,
      "properties": {},
      "conditions": []
    },
    {
      "action": "plugin::users-permissions.providers.read",
      "actionParameters": {},
      "subject": null,
      "properties": {},
      "conditions": []
    },
    {
      "action": "plugin::users-permissions.providers.update",
      "actionParameters": {},
      "subject": null,
      "properties": {},
      "conditions": []
    },
    {
      "action": "plugin::users-permissions.roles.create",
      "actionParameters": {},
      "subject": null,
      "properties": {},
      "conditions": []
    },
    {
      "action": "plugin::users-permissions.roles.delete",
      "actionParameters": {},
      "subject": null,
      "properties": {},
      "conditions": []
    },
    {
      "action": "plugin::users-permissions.roles.read",
      "actionParameters": {},
      "subject": null,
      "properties": {},
      "conditions": []
    },
    {
      "action": "plugin::users-permissions.roles.update",
      "actionParameters": {},
      "subject": null,
      "properties": {},
      "conditions": []
    }
  ]
}