{
  "key": "plugin_content_manager_configuration_content_types::api::author.author",
  "value": {
    "settings": {
      "bulkable": true,
      "filterable": true,
      "searchable": true,
      "pageSize": 10,
      "mainField": "full_name",
      "defaultSortBy": "full_name",
      "defaultSortOrder": "ASC"
    },
    "metadatas": {
      "id": {
        "edit": {},
        "list": {
          "label": "id",
          "searchable": true,
          "sortable": true
        }
      },
      "full_name": {
        "edit": {
          "label": "full_name",
          "description": "",
          "placeholder": "",
          "visible": true,
          "editable": true
        },
        "list": {
          "label": "full_name",
          "searchable": true,
          "sortable": true
        }
      },
      "email": {
        "edit": {
          "label": "email",
          "description": "",
          "placeholder": "",
          "visible": true,
          "editable": true
        },
        "list": {
          "label": "email",
          "searchable": true,
          "sortable": true
        }
      },
      "slug": {
        "edit": {
          "label": "slug",
          "description": "",
          "placeholder": "",
          "visible": true,
          "editable": true
        },
        "list": {
          "label": "slug",
          "searchable": true,
          "sortable": true
        }
      },
      "avatar": {
        "edit": {
          "label": "avatar",
          "description": "",
          "placeholder": "",
          "visible": true,
          "editable": true
        },
        "list": {
          "label": "avatar",
          "searchable": false,
          "sortable": false
        }
      },
      "author_user": {
        "edit": {
          "label": "author_user",
          "description": "",
          "placeholder": "",
          "visible": true,
          "editable": true,
          "mainField": "firstname"
        },
        "list": {
          "label": "author_user",
          "searchable": true,
          "sortable": true
        }
      },
      "books": {
        "edit": {
          "label": "books",
          "description": "",
          "placeholder": "",
          "visible": true,
          "editable": true,
          "mainField": "title"
        },
        "list": {
          "label": "books",
          "searchable": false,
          "sortable": false
        }
      },
      "bio": {
        "edit": {
          "label": "bio",
          "description": "",
          "placeholder": "",
          "visible": true,
          "editable": true
        },
        "list": {
          "label": "bio",
          "searchable": false,
          "sortable": false
        }
      },
      "reviews": {
        "edit": {
          "label": "reviews",
          "description": "",
          "placeholder": "",
          "visible": true,
          "editable": false,
          "mainField": "rating"
        },
        "list": {
          "label": "reviews",
          "searchable": false,
          "sortable": false
        }
      },
      "seo": {
        "edit": {
          "label": "seo",
          "description": "",
          "placeholder": "",
          "visible": true,
          "editable": true
        },
        "list": {
          "label": "seo",
          "searchable": false,
          "sortable": false
        }
      },
      "createdAt": {
        "edit": {
          "label": "createdAt",
          "description": "",
          "placeholder": "",
          "visible": false,
          "editable": true
        },
        "list": {
          "label": "createdAt",
          "searchable": true,
          "sortable": true
        }
      },
      "updatedAt": {
        "edit": {
          "label": "updatedAt",
          "description": "",
          "placeholder": "",
          "visible": false,
          "editable": true
        },
        "list": {
          "label": "updatedAt",
          "searchable": true,
          "sortable": true
        }
      },
      "createdBy": {
        "edit": {
          "label": "createdBy",
          "description": "",
          "placeholder": "",
          "visible": false,
          "editable": true,
          "mainField": "firstname"
        },
        "list": {
          "label": "createdBy",
          "searchable": true,
          "sortable": true
        }
      },
      "updatedBy": {
        "edit": {
          "label": "updatedBy",
          "description": "",
          "placeholder": "",
          "visible": false,
          "editable": true,
          "mainField": "firstname"
        },
        "list": {
          "label": "updatedBy",
          "searchable": true,
          "sortable": true
        }
      }
    },
    "layouts": {
      "list": [
        "id",
        "full_name",
        "email",
        "slug"
      ],
      "edit": [
        [
          {
            "name": "full_name",
            "size": 6
          },
          {
            "name": "email",
            "size": 6
          }
        ],
        [
          {
            "name": "avatar",
            "size": 6
          }
        ],
        [
          {
            "name": "author_user",
            "size": 6
          },
          {
            "name": "books",
            "size": 6
          }
        ],
        [
          {
            "name": "bio",
            "size": 12
          }
        ],
        [
          {
            "name": "seo",
            "size": 12
          }
        ],
        [
          {
            "name": "reviews",
            "size": 12
          }
        ],
        [
          {
            "name": "slug",
            "size": 6
          }
        ]
      ]
    },
    "uid": "api::author.author"
  },
  "type": "object",
  "environment": null,
  "tag": null
}