{
  "key": "plugin_content_manager_configuration_content_types::api::category.category",
  "value": {
    "settings": {
      "bulkable": true,
      "filterable": true,
      "searchable": true,
      "pageSize": 10,
      "mainField": "title",
      "defaultSortBy": "title",
      "defaultSortOrder": "ASC"
    },
    "metadatas": {
      "id": {
        "edit": {},
        "list": {
          "label": "id",
          "searchable": true,
          "sortable": true
        }
      },
      "title": {
        "edit": {
          "label": "title",
          "description": "",
          "placeholder": "",
          "visible": true,
          "editable": true
        },
        "list": {
          "label": "title",
          "searchable": true,
          "sortable": true
        }
      },
      "slug": {
        "edit": {
          "label": "slug",
          "description": "",
          "placeholder": "",
          "visible": true,
          "editable": true
        },
        "list": {
          "label": "slug",
          "searchable": true,
          "sortable": true
        }
      },
      "banner": {
        "edit": {
          "label": "banner",
          "description": "",
          "placeholder": "",
          "visible": true,
          "editable": true
        },
        "list": {
          "label": "banner",
          "searchable": false,
          "sortable": false
        }
      },
      "description": {
        "edit": {
          "label": "description",
          "description": "",
          "placeholder": "",
          "visible": true,
          "editable": true
        },
        "list": {
          "label": "description",
          "searchable": false,
          "sortable": false
        }
      },
      "show_title_in_details": {
        "edit": {
          "label": "show_title_in_details",
          "description": "",
          "placeholder": "",
          "visible": true,
          "editable": true
        },
        "list": {
          "label": "show_title_in_details",
          "searchable": true,
          "sortable": true
        }
      },
      "books": {
        "edit": {
          "label": "books",
          "description": "",
          "placeholder": "",
          "visible": true,
          "editable": true,
          "mainField": "title"
        },
        "list": {
          "label": "books",
          "searchable": false,
          "sortable": false
        }
      },
      "createdAt": {
        "edit": {
          "label": "createdAt",
          "description": "",
          "placeholder": "",
          "visible": false,
          "editable": true
        },
        "list": {
          "label": "createdAt",
          "searchable": true,
          "sortable": true
        }
      },
      "updatedAt": {
        "edit": {
          "label": "updatedAt",
          "description": "",
          "placeholder": "",
          "visible": false,
          "editable": true
        },
        "list": {
          "label": "updatedAt",
          "searchable": true,
          "sortable": true
        }
      },
      "createdBy": {
        "edit": {
          "label": "createdBy",
          "description": "",
          "placeholder": "",
          "visible": false,
          "editable": true,
          "mainField": "firstname"
        },
        "list": {
          "label": "createdBy",
          "searchable": true,
          "sortable": true
        }
      },
      "updatedBy": {
        "edit": {
          "label": "updatedBy",
          "description": "",
          "placeholder": "",
          "visible": false,
          "editable": true,
          "mainField": "firstname"
        },
        "list": {
          "label": "updatedBy",
          "searchable": true,
          "sortable": true
        }
      }
    },
    "layouts": {
      "edit": [
        [
          {
            "name": "title",
            "size": 4
          },
          {
            "name": "slug",
            "size": 4
          },
          {
            "name": "show_title_in_details",
            "size": 4
          }
        ],
        [
          {
            "name": "banner",
            "size": 6
          },
          {
            "name": "books",
            "size": 6
          }
        ],
        [
          {
            "name": "description",
            "size": 12
          }
        ]
      ],
      "list": [
        "id",
        "title",
        "slug",
        "banner"
      ]
    },
    "uid": "api::category.category"
  },
  "type": "object",
  "environment": null,
  "tag": null
}