{
  "key": "plugin_content_manager_configuration_components::shared.youtube-video",
  "value": {
    "settings": {
      "bulkable": true,
      "filterable": true,
      "searchable": true,
      "pageSize": 10,
      "mainField": "video_url",
      "defaultSortBy": "video_url",
      "defaultSortOrder": "ASC"
    },
    "metadatas": {
      "id": {
        "edit": {},
        "list": {
          "label": "id",
          "searchable": false,
          "sortable": false
        }
      },
      "video_url": {
        "edit": {
          "label": "video_url",
          "description": "",
          "placeholder": "",
          "visible": true,
          "editable": true
        },
        "list": {
          "label": "video_url",
          "searchable": true,
          "sortable": true
        }
      },
      "short_desc": {
        "edit": {
          "label": "short_desc",
          "description": "",
          "placeholder": "",
          "visible": true,
          "editable": true
        },
        "list": {
          "label": "short_desc",
          "searchable": true,
          "sortable": true
        }
      }
    },
    "layouts": {
      "list": [
        "id",
        "video_url",
        "short_desc"
      ],
      "edit": [
        [
          {
            "name": "video_url",
            "size": 6
          },
          {
            "name": "short_desc",
            "size": 6
          }
        ]
      ]
    },
    "uid": "shared.youtube-video",
    "isComponent": true
  },
  "type": "object",
  "environment": null,
  "tag": null
}