{
  "key": "plugin_seo_settings",
  "value": {
    "api::app-config.app-config": {
      "collectionName": "app-config",
      "seoChecks": {
        "metaTitle": true,
        "metaDescription": true,
        "metaRobots": true,
        "metaSocial": true,
        "wordCount": true,
        "canonicalUrl": true,
        "keywordDensity": true,
        "structuredData": true,
        "alternativeText": true,
        "lastUpdatedAt": true
      }
    },
    "api::article.article": {
      "collectionName": "article",
      "seoChecks": {
        "metaTitle": true,
        "metaDescription": true,
        "metaRobots": true,
        "metaSocial": true,
        "wordCount": true,
        "canonicalUrl": true,
        "keywordDensity": true,
        "structuredData": true,
        "alternativeText": true,
        "lastUpdatedAt": true
      }
    },
    "api::author.author": {
      "collectionName": "author",
      "seoChecks": {
        "metaTitle": true,
        "metaDescription": true,
        "metaRobots": true,
        "metaSocial": true,
        "wordCount": true,
        "canonicalUrl": true,
        "keywordDensity": true,
        "structuredData": true,
        "alternativeText": true,
        "lastUpdatedAt": true
      }
    },
    "api::book.book": {
      "collectionName": "book",
      "seoChecks": {
        "metaTitle": true,
        "metaDescription": true,
        "metaRobots": true,
        "metaSocial": true,
        "wordCount": true,
        "canonicalUrl": true,
        "keywordDensity": true,
        "structuredData": true,
        "alternativeText": true,
        "lastUpdatedAt": true
      }
    },
    "api::category.category": {
      "collectionName": "category",
      "seoChecks": {
        "metaTitle": true,
        "metaDescription": true,
        "metaRobots": true,
        "metaSocial": true,
        "wordCount": true,
        "canonicalUrl": true,
        "keywordDensity": true,
        "structuredData": true,
        "alternativeText": true,
        "lastUpdatedAt": true
      }
    },
    "api::publisher.publisher": {
      "collectionName": "publisher",
      "seoChecks": {
        "metaTitle": true,
        "metaDescription": true,
        "metaRobots": true,
        "metaSocial": true,
        "wordCount": true,
        "canonicalUrl": true,
        "keywordDensity": true,
        "structuredData": true,
        "alternativeText": true,
        "lastUpdatedAt": true
      }
    },
    "api::review.review": {
      "collectionName": "review",
      "seoChecks": {
        "metaTitle": true,
        "metaDescription": true,
        "metaRobots": true,
        "metaSocial": true,
        "wordCount": true,
        "canonicalUrl": true,
        "keywordDensity": true,
        "structuredData": true,
        "alternativeText": true,
        "lastUpdatedAt": true
      }
    },
    "api::sequence.sequence": {
      "collectionName": "sequence",
      "seoChecks": {
        "metaTitle": true,
        "metaDescription": true,
        "metaRobots": true,
        "metaSocial": true,
        "wordCount": true,
        "canonicalUrl": true,
        "keywordDensity": true,
        "structuredData": true,
        "alternativeText": true,
        "lastUpdatedAt": true
      }
    },
    "api::tag.tag": {
      "collectionName": "tag",
      "seoChecks": {
        "metaTitle": true,
        "metaDescription": true,
        "metaRobots": true,
        "metaSocial": true,
        "wordCount": true,
        "canonicalUrl": true,
        "keywordDensity": true,
        "structuredData": true,
        "alternativeText": true,
        "lastUpdatedAt": true
      }
    }
  },
  "type": "object",
  "environment": null,
  "tag": null
}